10246438_b19c89c536_o.jpg
2435125604_31c6bd2fe8_b.jpg;1
2753097477_d0722e2e47_b.jpg;1
2769939415_0836759299_b.jpg;6
2887177479_ba966ac8f1_b.jpg;1
2898548515_6ecb1b18c3_b.jpg;2
2901465708_92475b7b91_b.jpg;1
3256543284_d5d82d5020_b.jpg;1
3348463597_b54cfc5ddc_b.jpg;1
3423424291_006f2a941f_b.jpg;1
423941623_3552c9f2d4_b.jpg;2
