10246438_b19c89c536_o.jpg
2133182079_be500f97ce_b.jpg
2261435807_73bc7077f8_b.jpg
2397322885_c680deed4d_b.jpg;1
2435125604_31c6bd2fe8_b.jpg;1
2533281837_579901f4bd_o.jpg;2
2589496546_e619e0885f_b.jpg
2658124687_c5d934e817_o.jpg;1
2658953945_dfbcd20c88_o.jpg;2
2701266892_9f6a266c73_b.jpg;1
2701266892_9f6a266c73_b.jpg;2
2732657667_70ea716758_b.jpg;1
2732673881_4eafd10dee_b.jpg;1
2753164853_95010b01b8_b.jpg;5
2769939415_0836759299_b.jpg
2769939415_0836759299_b.jpg;1
2794213364_07aab10f12_b.jpg;2
2806020603_8aae04b663_b.jpg
2806777764_119478f5f6_b.jpg
2811872490_be8233cf44_o.jpg;1
2811872490_be8233cf44_o.jpg;3
2825164283_300f0bf5c5_b.jpg
2858291596_7f75325aa6_b.jpg
2888009192_7c89bc0a45_o.jpg;2
2889879115_f395d9e73a_b.jpg;2
2889879115_f395d9e73a_b.jpg;3
2890715076_da79e76a76_b.jpg;2
2890715076_da79e76a76_b.jpg;5
2895293885_2b05885b1e_b.jpg;1
2895846651_a00a548690_b.jpg;1
2896004671_f419fff9f5_b.jpg
2896004671_f419fff9f5_b.jpg;1
2896004671_f419fff9f5_b.jpg;2
2896584614_e00d989df1_b.jpg;1
2896584614_e00d989df1_b.jpg;4
2897008770_6b3a144bc8_b.jpg;2
2897249480_60777a86f5_b.jpg;1
2897326993_3eee7aec19_o.jpg;2
2897455605_2251ba186e_b.jpg
2899016081_fc9f1a6f51_o.jpg;1
2899016081_fc9f1a6f51_o.jpg;3
2899390294_8753b53234_o.jpg
2899518022_bc058f5eb9_o.jpg;1
2899688728_8d051969ba_b.jpg;2
2899746058_90b34b44e0_b.jpg;2
2900485979_0ce0069453_b.jpg;2
2900520761_7defe9445e_b.jpg;1
2900520761_7defe9445e_b.jpg;2
2900657635_dd69ce911b_b.jpg;1
2900657635_dd69ce911b_b.jpg;2
2900780773_a04b16867b_b.jpg;1
2900967477_7d7dea87f9_b.jpg
2901319214_3e94f01c9b_b.jpg
2901465708_92475b7b91_b.jpg
2901465708_92475b7b91_b.jpg;1
2901730800_795f2d81d1_b.jpg;1
2901983841_2faec5db5e_b.jpg
2902017573_6b67a13871_b.jpg
2902017573_6b67a13871_b.jpg;1
2902254285_c38ff64355_b.jpg;1
2902278619_6df3489699_b.jpg;1
2902333613_52bbf4dda4_b.jpg
2902566385_14d904a454_b.jpg
2904553289_b77a95c45d_b.jpg;1
2904553289_b77a95c45d_b.jpg;2
2904553289_b77a95c45d_b.jpg;3
304810791_1f0dd073c4_o.jpg;4
304811200_2adc8ecbd7_o.jpg;2
3086402599_f03601d2a7_b.jpg
3086419677_4e65826e8d_b.jpg
3194573559_9c3564e0bf_b.jpg
3228892804_d921047f31_b.jpg
3236139447_500282591f_b.jpg;1
3256543284_d5d82d5020_b.jpg;1
3266149681_316be3479a_b.jpg
3268661329_2cf3f5664b_o.jpg
3273003682_eb03abdc07_o.jpg
3294803449_7c17807813_b.jpg
3308077230_6d303ca3a0_b.jpg
3311787445_368a475474_b.jpg;2
3317900493_3e09ca06fe_b.jpg
3318731370_6abfce763c_b.jpg
3321716388_11cc114d8f_b.jpg;1
3341851767_001e1b8bec_b.jpg
3343925542_8c475978f9_b.jpg
3349165624_349740e8a4_o.jpg
3355594347_5403851838_b.jpg
3355594347_5403851838_b.jpg;1
3359914233_cf8ce52020_o.jpg
3366751633_446848131f_b.jpg;1
3366758949_8ca5652f1d.jpg
3366763695_e5083b4ba4_b.jpg
3375412612_74aa2c9e85_b.jpg
3375412612_74aa2c9e85_b.jpg;3
3421464718_acf3dcb840_b.jpg
3422935419_38963fe580.jpg
3423424291_006f2a941f_b.jpg;1
3423424291_006f2a941f_b.jpg;2
3423726342_4fffc40a95_b.jpg;4
3423743510_fcc95164f2_b.jpg;1
3423743510_fcc95164f2_b.jpg;2
3424241444_972862b80a_b.jpg;3
382787700_cedac03a34_b.jpg
382805844_3094002ce1_b.jpg
423940171_31d7acb162_b.jpg;1
423940171_31d7acb162_b.jpg;3
423941623_3552c9f2d4_b.jpg;2
